…
``` r
instacart %>% 
  group_by(aisle) %>% 
  summarize(n_obs = n())
```

    ## # A tibble: 134 × 2
    ##    aisle                  n_obs
    ##    <chr>                  <int>
    ##  1 air fresheners candles  1067
    ##  2 asian foods             7007
    ##  3 baby accessories         306
    ##  4 baby bath body care      328
    ##  5 baby food formula      13198
    ##  6 bakery desserts         1501
    ##  7 baking ingredients     13088
    ##  8 baking supplies decor   1094
    ##  9 beauty                   287
    ## 10 beers coolers           1839
    ## # ℹ 124 more rows
…
**There are 116 months between January 2015 and August 2024. How many
ZIP codes are observed 116 times? How many are observed fewer than 10
times? Why are some ZIP codes are observed rarely and others observed in
each month?**

``` r
nyc_zillow_df %>%
  group_by(zip_code) %>%
  summarise(n_obs = n()) %>% 
  filter(n_obs == 116)
```

    ## # A tibble: 147 × 2
    ##    zip_code n_obs
    ##       <dbl> <int>
    ##  1    10001   116
    ##  2    10002   116
    ##  3    10003   116
    ##  4    10004   116
    ##  5    10005   116
    ##  6    10006   116
    ##  7    10007   116
    ##  8    10009   116
    ##  9    10010   116
    ## 10    10011   116
    ## # ℹ 137 more rows

``` r
nyc_zillow_df %>%
  group_by(zip_code) %>%
  summarise(n_obs = n()) %>% 
  filter(n_obs < 10)
```

    ## # A tibble: 171 × 2
    ##    zip_code n_obs
    ##       <dbl> <int>
    ##  1    10008     1
    ##  2    10020     1
    ##  3    10041     1
    ##  4    10043     1
    ##  5    10045     1
    ##  6    10047     1
    ##  7    10048     1
    ##  8    10055     1
    ##  9    10072     1
    ## 10    10080     1
    ## # ℹ 161 more rows
…
